Waqar/tasks/7_segment_display/seven_seg_display.vcd
$date
	Thu Jul  4 14:20:59 2024
$end
$version
	ModelSim Version 2020.1
$end
$timescale
	1ps
$end

$scope module seven_seg_display_tb $end
$var reg 4 ! a_i [3:0] $end
$var wire 1 " seg_o [6] $end
$var wire 1 # seg_o [5] $end
$var wire 1 $ seg_o [4] $end
$var wire 1 % seg_o [3] $end
$var wire 1 & seg_o [2] $end
$var wire 1 ' seg_o [1] $end
$var wire 1 ( seg_o [0] $end
$var integer 32 ) i $end
$var integer 32 * seg_expected $end

$scope module dut $end
$var wire 1 + a_i [3] $end
$var wire 1 , a_i [2] $end
$var wire 1 - a_i [1] $end
$var wire 1 . a_i [0] $end
$var reg 7 / seg_o [6:0] $end

$scope begin seven_segmet $end
$upscope $end
$upscope $end
$upscope $end
$enddefinitions $end
#0
$dumpvars
b0 !
b1111110 /
b0 )
bx *
0(
1'
1&
1%
1$
1#
1"
0.
0-
0,
0+
$end
#10
b1 )
b1 !
1.
b110000 /
0'
0&
0%
0"
#20
b10 )
b10 !
0.
1-
b1101101 /
1(
1&
1%
0$
1"
#30
b11 )
b11 !
1.
b1111001 /
0&
1$
#40
b100 )
b100 !
0.
0-
1,
b110011 /
1'
0%
0"
#50
b101 )
b101 !
1.
b1011011 /
1%
0#
1"
#60
b110 )
b110 !
0.
1-
b1011111 /
1&
#70
b111 )
b111 !
1.
b1110000 /
0(
0'
0&
0%
1#
#80
b1000 )
b1000 !
0.
0-
0,
1+
b1111111 /
1(
1'
1&
1%
#90
b1001 )
b1001 !
1.
b1111011 /
0&
#100
b1010 )
b1010 !
0.
1-
b1110111 /
1&
0%
#110
b1011 )
b1011 !
1.
b11111 /
1%
0#
0"
#120
b1100 )
b1100 !
0.
0-
1,
b1001110 /
0(
0$
1"
#130
b1101 )
b1101 !
1.
b111101 /
1(
0'
1$
1#
0"
#140
b1110 )
b1110 !
0.
1-
b1001111 /
1'
0$
0#
1"
#150
b1111 )
b1111 !
1.
b1000111 /
0%
#160
b10000 )
