Waqar/tasks/4b_adder/transcript
# vsim -c -do "run -all; quit" adder_4b_tb 
# Start time: 12:00:48 on Jul 04,2024
# Loading sv_std.std
# Loading work.adder_4b_tb
# Loading work.adder_4b
# run -all
# Check           0-> Passed           0: a =  0 b =  0 c =  0 c_expected =  0
# Check           1-> Passed           1: a =  0 b =  1 c =  1 c_expected =  1
# Check           2-> Passed           2: a =  0 b =  2 c =  2 c_expected =  2
# Check           3-> Passed           3: a =  0 b =  3 c =  3 c_expected =  3
# Check           4-> Passed           4: a =  0 b =  4 c =  4 c_expected =  4
# Check           5-> Passed           5: a =  0 b =  5 c =  5 c_expected =  5
# Check           6-> Passed           6: a =  0 b =  6 c =  6 c_expected =  6
# Check           7-> Passed           7: a =  0 b =  7 c =  7 c_expected =  7
# Check           8-> Passed           8: a =  0 b =  8 c =  8 c_expected =  8
# Check           9-> Passed           9: a =  0 b =  9 c =  9 c_expected =  9
# Check          10-> Passed          10: a =  0 b = 10 c = 10 c_expected = 10
# Check          11-> Passed          11: a =  0 b = 11 c = 11 c_expected = 11
# Check          12-> Passed          12: a =  0 b = 12 c = 12 c_expected = 12
# Check          13-> Passed          13: a =  0 b = 13 c = 13 c_expected = 13
# Check          14-> Passed          14: a =  0 b = 14 c = 14 c_expected = 14
# Check          15-> Passed          15: a =  0 b = 15 c = 15 c_expected = 15
# Check          16-> Passed          16: a =  1 b =  0 c =  1 c_expected =  1
# Check          17-> Passed          17: a =  1 b =  1 c =  2 c_expected =  2
# Check          18-> Passed          18: a =  1 b =  2 c =  3 c_expected =  3
# Check          19-> Passed          19: a =  1 b =  3 c =  4 c_expected =  4
# Check          20-> Passed          20: a =  1 b =  4 c =  5 c_expected =  5
# Check          21-> Passed          21: a =  1 b =  5 c =  6 c_expected =  6
# Check          22-> Passed          22: a =  1 b =  6 c =  7 c_expected =  7
# Check          23-> Passed          23: a =  1 b =  7 c =  8 c_expected =  8
# Check          24-> Passed          24: a =  1 b =  8 c =  9 c_expected =  9
# Check          25-> Passed          25: a =  1 b =  9 c = 10 c_expected = 10
# Check          26-> Passed          26: a =  1 b = 10 c = 11 c_expected = 11
# Check          27-> Passed          27: a =  1 b = 11 c = 12 c_expected = 12
# Check          28-> Passed          28: a =  1 b = 12 c = 13 c_expected = 13
# Check          29-> Passed          29: a =  1 b = 13 c = 14 c_expected = 14
# Check          30-> Passed          30: a =  1 b = 14 c = 15 c_expected = 15
# Check          31-> Passed          31: a =  1 b = 15 c = 16 c_expected = 16
# Check          32-> Passed          32: a =  2 b =  0 c =  2 c_expected =  2
# Check          33-> Passed          33: a =  2 b =  1 c =  3 c_expected =  3
# Check          34-> Passed          34: a =  2 b =  2 c =  4 c_expected =  4
# Check          35-> Passed          35: a =  2 b =  3 c =  5 c_expected =  5
# Check          36-> Passed          36: a =  2 b =  4 c =  6 c_expected =  6
# Check          37-> Passed          37: a =  2 b =  5 c =  7 c_expected =  7
# Check          38-> Passed          38: a =  2 b =  6 c =  8 c_expected =  8
# Check          39-> Passed          39: a =  2 b =  7 c =  9 c_expected =  9
# Check          40-> Passed          40: a =  2 b =  8 c = 10 c_expected = 10
# Check          41-> Passed          41: a =  2 b =  9 c = 11 c_expected = 11
# Check          42-> Passed          42: a =  2 b = 10 c = 12 c_expected = 12
# Check          43-> Passed          43: a =  2 b = 11 c = 13 c_expected = 13
# Check          44-> Passed          44: a =  2 b = 12 c = 14 c_expected = 14
# Check          45-> Passed          45: a =  2 b = 13 c = 15 c_expected = 15
# Check          46-> Passed          46: a =  2 b = 14 c = 16 c_expected = 16
# Check          47-> Passed          47: a =  2 b = 15 c = 17 c_expected = 17
# Check          48-> Passed          48: a =  3 b =  0 c =  3 c_expected =  3
# Check          49-> Passed          49: a =  3 b =  1 c =  4 c_expected =  4
# Check          50-> Passed          50: a =  3 b =  2 c =  5 c_expected =  5
# Check          51-> Passed          51: a =  3 b =  3 c =  6 c_expected =  6
# Check          52-> Passed          52: a =  3 b =  4 c =  7 c_expected =  7
# Check          53-> Passed          53: a =  3 b =  5 c =  8 c_expected =  8
# Check          54-> Passed          54: a =  3 b =  6 c =  9 c_expected =  9
# Check          55-> Passed          55: a =  3 b =  7 c = 10 c_expected = 10
# Check          56-> Passed          56: a =  3 b =  8 c = 11 c_expected = 11
# Check          57-> Passed          57: a =  3 b =  9 c = 12 c_expected = 12
# Check          58-> Passed          58: a =  3 b = 10 c = 13 c_expected = 13
# Check          59-> Passed          59: a =  3 b = 11 c = 14 c_expected = 14
# Check          60-> Passed          60: a =  3 b = 12 c = 15 c_expected = 15
# Check          61-> Passed          61: a =  3 b = 13 c = 16 c_expected = 16
# Check          62-> Passed          62: a =  3 b = 14 c = 17 c_expected = 17
# Check          63-> Passed          63: a =  3 b = 15 c = 18 c_expected = 18
# Check          64-> Passed          64: a =  4 b =  0 c =  4 c_expected =  4
# Check          65-> Passed          65: a =  4 b =  1 c =  5 c_expected =  5
# Check          66-> Passed          66: a =  4 b =  2 c =  6 c_expected =  6
# Check          67-> Passed          67: a =  4 b =  3 c =  7 c_expected =  7
# Check          68-> Passed          68: a =  4 b =  4 c =  8 c_expected =  8
# Check          69-> Passed          69: a =  4 b =  5 c =  9 c_expected =  9
# Check          70-> Passed          70: a =  4 b =  6 c = 10 c_expected = 10
# Check          71-> Passed          71: a =  4 b =  7 c = 11 c_expected = 11
# Check          72-> Passed          72: a =  4 b =  8 c = 12 c_expected = 12
# Check          73-> Passed          73: a =  4 b =  9 c = 13 c_expected = 13
# Check          74-> Passed          74: a =  4 b = 10 c = 14 c_expected = 14
# Check          75-> Passed          75: a =  4 b = 11 c = 15 c_expected = 15
# Check          76-> Passed          76: a =  4 b = 12 c = 16 c_expected = 16
# Check          77-> Passed          77: a =  4 b = 13 c = 17 c_expected = 17
# Check          78-> Passed          78: a =  4 b = 14 c = 18 c_expected = 18
# Check          79-> Passed          79: a =  4 b = 15 c = 19 c_expected = 19
# Check          80-> Passed          80: a =  5 b =  0 c =  5 c_expected =  5
# Check          81-> Passed          81: a =  5 b =  1 c =  6 c_expected =  6
# Check          82-> Passed          82: a =  5 b =  2 c =  7 c_expected =  7
# Check          83-> Passed          83: a =  5 b =  3 c =  8 c_expected =  8
# Check          84-> Passed          84: a =  5 b =  4 c =  9 c_expected =  9
# Check          85-> Passed          85: a =  5 b =  5 c = 10 c_expected = 10
# Check          86-> Passed          86: a =  5 b =  6 c = 11 c_expected = 11
# Check          87-> Passed          87: a =  5 b =  7 c = 12 c_expected = 12
# Check          88-> Passed          88: a =  5 b =  8 c = 13 c_expected = 13
# Check          89-> Passed          89: a =  5 b =  9 c = 14 c_expected = 14
# Check          90-> Passed          90: a =  5 b = 10 c = 15 c_expected = 15
# Check          91-> Passed          91: a =  5 b = 11 c = 16 c_expected = 16
# Check          92-> Passed          92: a =  5 b = 12 c = 17 c_expected = 17
# Check          93-> Passed          93: a =  5 b = 13 c = 18 c_expected = 18
# Check          94-> Passed          94: a =  5 b = 14 c = 19 c_expected = 19
# Check          95-> Passed          95: a =  5 b = 15 c = 20 c_expected = 20
# Check          96-> Passed          96: a =  6 b =  0 c =  6 c_expected =  6
# Check          97-> Passed          97: a =  6 b =  1 c =  7 c_expected =  7
# Check          98-> Passed          98: a =  6 b =  2 c =  8 c_expected =  8
# Check          99-> Passed          99: a =  6 b =  3 c =  9 c_expected =  9
# Check         100-> Passed         100: a =  6 b =  4 c = 10 c_expected = 10
# Check         101-> Passed         101: a =  6 b =  5 c = 11 c_expected = 11
# Check         102-> Passed         102: a =  6 b =  6 c = 12 c_expected = 12
# Check         103-> Passed         103: a =  6 b =  7 c = 13 c_expected = 13
# Check         104-> Passed         104: a =  6 b =  8 c = 14 c_expected = 14
# Check         105-> Passed         105: a =  6 b =  9 c = 15 c_expected = 15
# Check         106-> Passed         106: a =  6 b = 10 c = 16 c_expected = 16
# Check         107-> Passed         107: a =  6 b = 11 c = 17 c_expected = 17
# Check         108-> Passed         108: a =  6 b = 12 c = 18 c_expected = 18
# Check         109-> Passed         109: a =  6 b = 13 c = 19 c_expected = 19
# Check         110-> Passed         110: a =  6 b = 14 c = 20 c_expected = 20
# Check         111-> Passed         111: a =  6 b = 15 c = 21 c_expected = 21
# Check         112-> Passed         112: a =  7 b =  0 c =  7 c_expected =  7
# Check         113-> Passed         113: a =  7 b =  1 c =  8 c_expected =  8
# Check         114-> Passed         114: a =  7 b =  2 c =  9 c_expected =  9
# Check         115-> Passed         115: a =  7 b =  3 c = 10 c_expected = 10
# Check         116-> Passed         116: a =  7 b =  4 c = 11 c_expected = 11
# Check         117-> Passed         117: a =  7 b =  5 c = 12 c_expected = 12
# Check         118-> Passed         118: a =  7 b =  6 c = 13 c_expected = 13
# Check         119-> Passed         119: a =  7 b =  7 c = 14 c_expected = 14
# Check         120-> Passed         120: a =  7 b =  8 c = 15 c_expected = 15
# Check         121-> Passed         121: a =  7 b =  9 c = 16 c_expected = 16
# Check         122-> Passed         122: a =  7 b = 10 c = 17 c_expected = 17
# Check         123-> Passed         123: a =  7 b = 11 c = 18 c_expected = 18
# Check         124-> Passed         124: a =  7 b = 12 c = 19 c_expected = 19
# Check         125-> Passed         125: a =  7 b = 13 c = 20 c_expected = 20
# Check         126-> Passed         126: a =  7 b = 14 c = 21 c_expected = 21
# Check         127-> Passed         127: a =  7 b = 15 c = 22 c_expected = 22
# Check         128-> Passed         128: a =  8 b =  0 c =  8 c_expected =  8
# Check         129-> Passed         129: a =  8 b =  1 c =  9 c_expected =  9
# Check         130-> Passed         130: a =  8 b =  2 c = 10 c_expected = 10
# Check         131-> Passed         131: a =  8 b =  3 c = 11 c_expected = 11
# Check         132-> Passed         132: a =  8 b =  4 c = 12 c_expected = 12
# Check         133-> Passed         133: a =  8 b =  5 c = 13 c_expected = 13
# Check         134-> Passed         134: a =  8 b =  6 c = 14 c_expected = 14
# Check         135-> Passed         135: a =  8 b =  7 c = 15 c_expected = 15
# Check         136-> Passed         136: a =  8 b =  8 c = 16 c_expected = 16
# Check         137-> Passed         137: a =  8 b =  9 c = 17 c_expected = 17
# Check         138-> Passed         138: a =  8 b = 10 c = 18 c_expected = 18
# Check         139-> Passed         139: a =  8 b = 11 c = 19 c_expected = 19
# Check         140-> Passed         140: a =  8 b = 12 c = 20 c_expected = 20
# Check         141-> Passed         141: a =  8 b = 13 c = 21 c_expected = 21
# Check         142-> Passed         142: a =  8 b = 14 c = 22 c_expected = 22
# Check         143-> Passed         143: a =  8 b = 15 c = 23 c_expected = 23
# Check         144-> Passed         144: a =  9 b =  0 c =  9 c_expected =  9
# Check         145-> Passed         145: a =  9 b =  1 c = 10 c_expected = 10
# Check         146-> Passed         146: a =  9 b =  2 c = 11 c_expected = 11
# Check         147-> Passed         147: a =  9 b =  3 c = 12 c_expected = 12
# Check         148-> Passed         148: a =  9 b =  4 c = 13 c_expected = 13
# Check         149-> Passed         149: a =  9 b =  5 c = 14 c_expected = 14
# Check         150-> Passed         150: a =  9 b =  6 c = 15 c_expected = 15
# Check         151-> Passed         151: a =  9 b =  7 c = 16 c_expected = 16
# Check         152-> Passed         152: a =  9 b =  8 c = 17 c_expected = 17
# Check         153-> Passed         153: a =  9 b =  9 c = 18 c_expected = 18
# Check         154-> Passed         154: a =  9 b = 10 c = 19 c_expected = 19
# Check         155-> Passed         155: a =  9 b = 11 c = 20 c_expected = 20
# Check         156-> Passed         156: a =  9 b = 12 c = 21 c_expected = 21
# Check         157-> Passed         157: a =  9 b = 13 c = 22 c_expected = 22
# Check         158-> Passed         158: a =  9 b = 14 c = 23 c_expected = 23
# Check         159-> Passed         159: a =  9 b = 15 c = 24 c_expected = 24
# Check         160-> Passed         160: a = 10 b =  0 c = 10 c_expected = 10
# Check         161-> Passed         161: a = 10 b =  1 c = 11 c_expected = 11
# Check         162-> Passed         162: a = 10 b =  2 c = 12 c_expected = 12
# Check         163-> Passed         163: a = 10 b =  3 c = 13 c_expected = 13
# Check         164-> Passed         164: a = 10 b =  4 c = 14 c_expected = 14
# Check         165-> Passed         165: a = 10 b =  5 c = 15 c_expected = 15
# Check         166-> Passed         166: a = 10 b =  6 c = 16 c_expected = 16
# Check         167-> Passed         167: a = 10 b =  7 c = 17 c_expected = 17
# Check         168-> Passed         168: a = 10 b =  8 c = 18 c_expected = 18
# Check         169-> Passed         169: a = 10 b =  9 c = 19 c_expected = 19
# Check         170-> Passed         170: a = 10 b = 10 c = 20 c_expected = 20
# Check         171-> Passed         171: a = 10 b = 11 c = 21 c_expected = 21
# Check         172-> Passed         172: a = 10 b = 12 c = 22 c_expected = 22
# Check         173-> Passed         173: a = 10 b = 13 c = 23 c_expected = 23
# Check         174-> Passed         174: a = 10 b = 14 c = 24 c_expected = 24
# Check         175-> Passed         175: a = 10 b = 15 c = 25 c_expected = 25
# Check         176-> Passed         176: a = 11 b =  0 c = 11 c_expected = 11
# Check         177-> Passed         177: a = 11 b =  1 c = 12 c_expected = 12
# Check         178-> Passed         178: a = 11 b =  2 c = 13 c_expected = 13
# Check         179-> Passed         179: a = 11 b =  3 c = 14 c_expected = 14
# Check         180-> Passed         180: a = 11 b =  4 c = 15 c_expected = 15
# Check         181-> Passed         181: a = 11 b =  5 c = 16 c_expected = 16
# Check         182-> Passed         182: a = 11 b =  6 c = 17 c_expected = 17
# Check         183-> Passed         183: a = 11 b =  7 c = 18 c_expected = 18
# Check         184-> Passed         184: a = 11 b =  8 c = 19 c_expected = 19
# Check         185-> Passed         185: a = 11 b =  9 c = 20 c_expected = 20
# Check         186-> Passed         186: a = 11 b = 10 c = 21 c_expected = 21
# Check         187-> Passed         187: a = 11 b = 11 c = 22 c_expected = 22
# Check         188-> Passed         188: a = 11 b = 12 c = 23 c_expected = 23
# Check         189-> Passed         189: a = 11 b = 13 c = 24 c_expected = 24
# Check         190-> Passed         190: a = 11 b = 14 c = 25 c_expected = 25
# Check         191-> Passed         191: a = 11 b = 15 c = 26 c_expected = 26
# Check         192-> Passed         192: a = 12 b =  0 c = 12 c_expected = 12
# Check         193-> Passed         193: a = 12 b =  1 c = 13 c_expected = 13
# Check         194-> Passed         194: a = 12 b =  2 c = 14 c_expected = 14
# Check         195-> Passed         195: a = 12 b =  3 c = 15 c_expected = 15
# Check         196-> Passed         196: a = 12 b =  4 c = 16 c_expected = 16
# Check         197-> Passed         197: a = 12 b =  5 c = 17 c_expected = 17
# Check         198-> Passed         198: a = 12 b =  6 c = 18 c_expected = 18
# Check         199-> Passed         199: a = 12 b =  7 c = 19 c_expected = 19
# Check         200-> Passed         200: a = 12 b =  8 c = 20 c_expected = 20
# Check         201-> Passed         201: a = 12 b =  9 c = 21 c_expected = 21
# Check         202-> Passed         202: a = 12 b = 10 c = 22 c_expected = 22
# Check         203-> Passed         203: a = 12 b = 11 c = 23 c_expected = 23
# Check         204-> Passed         204: a = 12 b = 12 c = 24 c_expected = 24
# Check         205-> Passed         205: a = 12 b = 13 c = 25 c_expected = 25
# Check         206-> Passed         206: a = 12 b = 14 c = 26 c_expected = 26
# Check         207-> Passed         207: a = 12 b = 15 c = 27 c_expected = 27
# Check         208-> Passed         208: a = 13 b =  0 c = 13 c_expected = 13
# Check         209-> Passed         209: a = 13 b =  1 c = 14 c_expected = 14
# Check         210-> Passed         210: a = 13 b =  2 c = 15 c_expected = 15
# Check         211-> Passed         211: a = 13 b =  3 c = 16 c_expected = 16
# Check         212-> Passed         212: a = 13 b =  4 c = 17 c_expected = 17
# Check         213-> Passed         213: a = 13 b =  5 c = 18 c_expected = 18
# Check         214-> Passed         214: a = 13 b =  6 c = 19 c_expected = 19
# Check         215-> Passed         215: a = 13 b =  7 c = 20 c_expected = 20
# Check         216-> Passed         216: a = 13 b =  8 c = 21 c_expected = 21
# Check         217-> Passed         217: a = 13 b =  9 c = 22 c_expected = 22
# Check         218-> Passed         218: a = 13 b = 10 c = 23 c_expected = 23
# Check         219-> Passed         219: a = 13 b = 11 c = 24 c_expected = 24
# Check         220-> Passed         220: a = 13 b = 12 c = 25 c_expected = 25
# Check         221-> Passed         221: a = 13 b = 13 c = 26 c_expected = 26
# Check         222-> Passed         222: a = 13 b = 14 c = 27 c_expected = 27
# Check         223-> Passed         223: a = 13 b = 15 c = 28 c_expected = 28
# Check         224-> Passed         224: a = 14 b =  0 c = 14 c_expected = 14
# Check         225-> Passed         225: a = 14 b =  1 c = 15 c_expected = 15
# Check         226-> Passed         226: a = 14 b =  2 c = 16 c_expected = 16
# Check         227-> Passed         227: a = 14 b =  3 c = 17 c_expected = 17
# Check         228-> Passed         228: a = 14 b =  4 c = 18 c_expected = 18
# Check         229-> Passed         229: a = 14 b =  5 c = 19 c_expected = 19
# Check         230-> Passed         230: a = 14 b =  6 c = 20 c_expected = 20
# Check         231-> Passed         231: a = 14 b =  7 c = 21 c_expected = 21
# Check         232-> Passed         232: a = 14 b =  8 c = 22 c_expected = 22
# Check         233-> Passed         233: a = 14 b =  9 c = 23 c_expected = 23
# Check         234-> Passed         234: a = 14 b = 10 c = 24 c_expected = 24
# Check         235-> Passed         235: a = 14 b = 11 c = 25 c_expected = 25
# Check         236-> Passed         236: a = 14 b = 12 c = 26 c_expected = 26
# Check         237-> Passed         237: a = 14 b = 13 c = 27 c_expected = 27
# Check         238-> Passed         238: a = 14 b = 14 c = 28 c_expected = 28
# Check         239-> Passed         239: a = 14 b = 15 c = 29 c_expected = 29
# Check         240-> Passed         240: a = 15 b =  0 c = 15 c_expected = 15
# Check         241-> Passed         241: a = 15 b =  1 c = 16 c_expected = 16
# Check         242-> Passed         242: a = 15 b =  2 c = 17 c_expected = 17
# Check         243-> Passed         243: a = 15 b =  3 c = 18 c_expected = 18
# Check         244-> Passed         244: a = 15 b =  4 c = 19 c_expected = 19
# Check         245-> Passed         245: a = 15 b =  5 c = 20 c_expected = 20
# Check         246-> Passed         246: a = 15 b =  6 c = 21 c_expected = 21
# Check         247-> Passed         247: a = 15 b =  7 c = 22 c_expected = 22
# Check         248-> Passed         248: a = 15 b =  8 c = 23 c_expected = 23
# Check         249-> Passed         249: a = 15 b =  9 c = 24 c_expected = 24
# Check         250-> Passed         250: a = 15 b = 10 c = 25 c_expected = 25
# Check         251-> Passed         251: a = 15 b = 11 c = 26 c_expected = 26
# Check         252-> Passed         252: a = 15 b = 12 c = 27 c_expected = 27
# Check         253-> Passed         253: a = 15 b = 13 c = 28 c_expected = 28
# Check         254-> Passed         254: a = 15 b = 14 c = 29 c_expected = 29
# Check         255-> Passed         255: a = 15 b = 15 c = 30 c_expected = 30
# Total checks =         256 Correct =         256 Incorrect =           0
# ** Note: $finish    : 4b_adder_tb.sv(36)
#    Time: 2560 ps  Iteration: 0  Instance: /adder_4b_tb
# End time: 12:00:48 on Jul 04,2024, Elapsed time: 0:00:00
# Errors: 0, Warnings: 0
