Waqar/tasks/level_pulse/level_pulse.vcd
$date
	Fri Jul 12 10:11:29 2024
$end
$version
	ModelSim Version 2020.1
$end
$timescale
	1ps
$end

$scope module level_pulse_tb $end
$var reg 1 ! clk $end
$var reg 1 " rst_n $end
$var reg 1 # level_i $end
$var wire 1 $ pulse_o $end

$scope module dut $end
$var wire 1 % clk $end
$var wire 1 & rst_n $end
$var wire 1 ' level_i $end
$var reg 1 ( pulse_o $end
$var reg 2 ) current_state [1:0] $end
$var reg 2 * next_state [1:0] $end
$var reg 1 + level_p $end
$upscope $end
$upscope $end
$enddefinitions $end
#0
$dumpvars
0!
0"
0#
0(
b0 )
b0 *
0+
0$
0%
0&
0'
$end
#10
1!
1"
1%
1&
#20
0!
1#
0%
1'
b1 *
#30
1!
1%
b1 )
1+
1(
b0 *
1$
#40
0#
0!
0'
0%
0(
1(
#50
1!
1%
b0 )
0+
0(
0$
#60
1#
0!
1'
0%
b1 *
#70
1!
1%
b1 )
1+
1(
b0 *
1$
#80
0!
0%
#90
1!
1%
b0 )
0(
0$
