Waqar/tasks/alu_16b/transcript
# vsim -c -do "run -all; quit" alu_16b_tb 
# Start time: 13:20:57 on Jul 13,2024
# Loading sv_std.std
# Loading work.alu_16b_tb
# Loading work.alu_16b
# run -all
# Test           0: Operation = ADD, a = 41912, b =  3110, expected =  45022
# Check           0 -> Passed: Operation = ADD, a = 41912, b =  3110, c =  45022, expected =  45022
# Test           1: Operation = ADD, a = 47462, b = 58294, expected = 105756
# Check           1 -> Passed: Operation = ADD, a = 47462, b = 58294, c = 105756, expected = 105756
# Test           2: Operation = ADD, a =  2246, b = 28230, expected =  30476
# Check           2 -> Passed: Operation = ADD, a =  2246, b = 28230, c =  30476, expected =  30476
# Test           3: Operation = ADD, a =  3954, b = 62254, expected =  66208
# Check           3 -> Passed: Operation = ADD, a =  3954, b = 62254, c =  66208, expected =  66208
# Test           4: Operation = ADD, a = 17511, b = 21818, expected =  39329
# Check           4 -> Passed: Operation = ADD, a = 17511, b = 21818, c =  39329, expected =  39329
# Test           5: Operation = ADD, a =  7274, b = 53684, expected =  60958
# Check           5 -> Passed: Operation = ADD, a =  7274, b = 53684, c =  60958, expected =  60958
# Test           6: Operation = ADD, a = 64111, b =  6742, expected =  70853
# Check           6 -> Passed: Operation = ADD, a = 64111, b =  6742, c =  70853, expected =  70853
# Test           7: Operation = ADD, a = 13877, b = 30676, expected =  44553
# Check           7 -> Passed: Operation = ADD, a = 13877, b = 30676, c =  44553, expected =  44553
# Test           8: Operation = ADD, a = 16558, b = 33149, expected =  49707
# Check           8 -> Passed: Operation = ADD, a = 16558, b = 33149, c =  49707, expected =  49707
# Test           9: Operation = ADD, a = 47067, b =  3589, expected =  50656
# Check           9 -> Passed: Operation = ADD, a = 47067, b =  3589, c =  50656, expected =  50656
# Test          10: Operation = ADD, a = 34531, b = 33568, expected =  68099
# Check          10 -> Passed: Operation = ADD, a = 34531, b = 33568, c =  68099, expected =  68099
# Test          11: Operation = ADD, a = 26085, b = 30469, expected =  56554
# Check          11 -> Passed: Operation = ADD, a = 26085, b = 30469, c =  56554, expected =  56554
# Test          12: Operation = ADD, a = 36133, b =  7913, expected =  44046
# Check          12 -> Passed: Operation = ADD, a = 36133, b =  7913, c =  44046, expected =  44046
# Test          13: Operation = ADD, a =  9309, b = 40330, expected =  49639
# Check          13 -> Passed: Operation = ADD, a =  9309, b = 40330, c =  49639, expected =  49639
# Test          14: Operation = ADD, a =  8536, b = 18827, expected =  27363
# Check          14 -> Passed: Operation = ADD, a =  8536, b = 18827, c =  27363, expected =  27363
# Test          15: Operation = ADD, a = 53590, b = 37833, expected =  91423
# Check          15 -> Passed: Operation = ADD, a = 53590, b = 37833, c =  91423, expected =  91423
# Test          16: Operation = ADD, a = 29369, b = 45376, expected =  74745
# Check          16 -> Passed: Operation = ADD, a = 29369, b = 45376, c =  74745, expected =  74745
# Test          17: Operation = ADD, a = 55168, b = 48654, expected = 103822
# Check          17 -> Passed: Operation = ADD, a = 55168, b = 48654, c = 103822, expected = 103822
# Test          18: Operation = ADD, a = 51412, b = 59790, expected = 111202
# Check          18 -> Passed: Operation = ADD, a = 51412, b = 59790, c = 111202, expected = 111202
# Test          19: Operation = ADD, a = 25792, b =  6551, expected =  32343
# Check          19 -> Passed: Operation = ADD, a = 25792, b =  6551, c =  32343, expected =  32343
# Test          20: Operation = ADD, a = 37157, b = 56263, expected =  93420
# Check          20 -> Passed: Operation = ADD, a = 37157, b = 56263, c =  93420, expected =  93420
# Test          21: Operation = ADD, a = 29272, b = 63825, expected =  93097
# Check          21 -> Passed: Operation = ADD, a = 29272, b = 63825, c =  93097, expected =  93097
# Test          22: Operation = ADD, a = 51506, b = 56867, expected = 108373
# Check          22 -> Passed: Operation = ADD, a = 51506, b = 56867, c = 108373, expected = 108373
# Test          23: Operation = ADD, a = 54100, b =   435, expected =  54535
# Check          23 -> Passed: Operation = ADD, a = 54100, b =   435, c =  54535, expected =  54535
# Test          24: Operation = ADD, a = 22106, b =  6886, expected =  28992
# Check          24 -> Passed: Operation = ADD, a = 22106, b =  6886, c =  28992, expected =  28992
# Test          25: Operation = ADD, a = 62966, b = 12901, expected =  75867
# Check          25 -> Passed: Operation = ADD, a = 62966, b = 12901, c =  75867, expected =  75867
# Test          26: Operation = ADD, a =  5610, b = 23311, expected =  28921
# Check          26 -> Passed: Operation = ADD, a =  5610, b = 23311, c =  28921, expected =  28921
# Test          27: Operation = ADD, a =  4335, b = 42052, expected =  46387
# Check          27 -> Passed: Operation = ADD, a =  4335, b = 42052, c =  46387, expected =  46387
# Test          28: Operation = ADD, a = 24009, b =  4299, expected =  28308
# Check          28 -> Passed: Operation = ADD, a = 24009, b =  4299, c =  28308, expected =  28308
# Test          29: Operation = ADD, a = 49991, b = 31431, expected =  81422
# Check          29 -> Passed: Operation = ADD, a = 49991, b = 31431, c =  81422, expected =  81422
# Test          30: Operation = ADD, a = 54770, b = 39905, expected =  94675
# Check          30 -> Passed: Operation = ADD, a = 54770, b = 39905, c =  94675, expected =  94675
# Test          31: Operation = ADD, a = 21381, b = 54064, expected =  75445
# Check          31 -> Passed: Operation = ADD, a = 21381, b = 54064, c =  75445, expected =  75445
# Test          32: Operation = ADD, a =  8822, b = 18717, expected =  27539
# Check          32 -> Passed: Operation = ADD, a =  8822, b = 18717, c =  27539, expected =  27539
# Test          33: Operation = ADD, a = 17874, b = 59158, expected =  77032
# Check          33 -> Passed: Operation = ADD, a = 17874, b = 59158, c =  77032, expected =  77032
# Test          34: Operation = ADD, a =  3803, b =  4928, expected =   8731
# Check          34 -> Passed: Operation = ADD, a =  3803, b =  4928, c =   8731, expected =   8731
# Test          35: Operation = ADD, a = 51893, b = 12945, expected =  64838
# Check          35 -> Passed: Operation = ADD, a = 51893, b = 12945, c =  64838, expected =  64838
# Test          36: Operation = ADD, a = 40819, b =  4256, expected =  45075
# Check          36 -> Passed: Operation = ADD, a = 40819, b =  4256, c =  45075, expected =  45075
# Test          37: Operation = ADD, a = 32087, b =  7197, expected =  39284
# Check          37 -> Passed: Operation = ADD, a = 32087, b =  7197, c =  39284, expected =  39284
# Test          38: Operation = ADD, a = 41940, b =  8157, expected =  50097
# Check          38 -> Passed: Operation = ADD, a = 41940, b =  8157, c =  50097, expected =  50097
# Test          39: Operation = ADD, a = 41370, b = 53380, expected =  94750
# Check          39 -> Passed: Operation = ADD, a = 41370, b = 53380, c =  94750, expected =  94750
# Test          40: Operation = ADD, a = 19383, b = 48265, expected =  67648
# Check          40 -> Passed: Operation = ADD, a = 19383, b = 48265, c =  67648, expected =  67648
# Test          41: Operation = ADD, a = 39178, b = 31445, expected =  70623
# Check          41 -> Passed: Operation = ADD, a = 39178, b = 31445, c =  70623, expected =  70623
# Test          42: Operation = ADD, a =  3326, b = 15948, expected =  19274
# Check          42 -> Passed: Operation = ADD, a =  3326, b = 15948, c =  19274, expected =  19274
# Test          43: Operation = ADD, a = 36350, b =  6851, expected =  43201
# Check          43 -> Passed: Operation = ADD, a = 36350, b =  6851, c =  43201, expected =  43201
# Test          44: Operation = ADD, a = 61320, b =  7612, expected =  68932
# Check          44 -> Passed: Operation = ADD, a = 61320, b =  7612, c =  68932, expected =  68932
# Test          45: Operation = ADD, a = 17819, b = 47859, expected =  65678
# Check          45 -> Passed: Operation = ADD, a = 17819, b = 47859, c =  65678, expected =  65678
# Test          46: Operation = ADD, a = 60975, b = 17847, expected =  78822
# Check          46 -> Passed: Operation = ADD, a = 60975, b = 17847, c =  78822, expected =  78822
# Test          47: Operation = ADD, a = 53515, b = 15079, expected =  68594
# Check          47 -> Passed: Operation = ADD, a = 53515, b = 15079, c =  68594, expected =  68594
# Test          48: Operation = ADD, a = 44288, b = 18697, expected =  62985
# Check          48 -> Passed: Operation = ADD, a = 44288, b = 18697, c =  62985, expected =  62985
# Test          49: Operation = ADD, a = 41578, b = 15041, expected =  56619
# Check          49 -> Passed: Operation = ADD, a = 41578, b = 15041, c =  56619, expected =  56619
# Test          50: Operation = ADD, a =  7684, b = 44896, expected =  52580
# Check          50 -> Passed: Operation = ADD, a =  7684, b = 44896, c =  52580, expected =  52580
# Test          51: Operation = ADD, a = 17327, b = 50543, expected =  67870
# Check          51 -> Passed: Operation = ADD, a = 17327, b = 50543, c =  67870, expected =  67870
# Test          52: Operation = ADD, a = 39237, b = 59341, expected =  98578
# Check          52 -> Passed: Operation = ADD, a = 39237, b = 59341, c =  98578, expected =  98578
# Test          53: Operation = ADD, a = 30572, b = 16080, expected =  46652
# Check          53 -> Passed: Operation = ADD, a = 30572, b = 16080, c =  46652, expected =  46652
# Test          54: Operation = ADD, a = 16553, b = 52732, expected =  69285
# Check          54 -> Passed: Operation = ADD, a = 16553, b = 52732, c =  69285, expected =  69285
# Test          55: Operation = ADD, a = 49893, b = 28839, expected =  78732
# Check          55 -> Passed: Operation = ADD, a = 49893, b = 28839, c =  78732, expected =  78732
# Test          56: Operation = ADD, a = 16443, b = 55486, expected =  71929
# Check          56 -> Passed: Operation = ADD, a = 16443, b = 55486, c =  71929, expected =  71929
# Test          57: Operation = ADD, a = 31393, b =  9605, expected =  40998
# Check          57 -> Passed: Operation = ADD, a = 31393, b =  9605, c =  40998, expected =  40998
# Test          58: Operation = ADD, a = 12174, b = 57248, expected =  69422
# Check          58 -> Passed: Operation = ADD, a = 12174, b = 57248, c =  69422, expected =  69422
# Test          59: Operation = ADD, a = 24853, b = 36864, expected =  61717
# Check          59 -> Passed: Operation = ADD, a = 24853, b = 36864, c =  61717, expected =  61717
# Test          60: Operation = ADD, a = 47556, b = 46987, expected =  94543
# Check          60 -> Passed: Operation = ADD, a = 47556, b = 46987, c =  94543, expected =  94543
# Test          61: Operation = ADD, a = 45224, b = 26301, expected =  71525
# Check          61 -> Passed: Operation = ADD, a = 45224, b = 26301, c =  71525, expected =  71525
# Test          62: Operation = ADD, a = 27244, b = 60285, expected =  87529
# Check          62 -> Passed: Operation = ADD, a = 27244, b = 60285, c =  87529, expected =  87529
# Test          63: Operation = ADD, a =  5803, b = 53674, expected =  59477
# Check          63 -> Passed: Operation = ADD, a =  5803, b = 53674, c =  59477, expected =  59477
# Test          64: Operation = ADD, a = 21857, b =  6834, expected =  28691
# Check          64 -> Passed: Operation = ADD, a = 21857, b =  6834, c =  28691, expected =  28691
# Test          65: Operation = ADD, a = 20822, b = 59974, expected =  80796
# Check          65 -> Passed: Operation = ADD, a = 20822, b = 59974, c =  80796, expected =  80796
# Test          66: Operation = ADD, a = 14548, b =  8929, expected =  23477
# Check          66 -> Passed: Operation = ADD, a = 14548, b =  8929, c =  23477, expected =  23477
# Test          67: Operation = ADD, a = 61396, b = 62497, expected = 123893
# Check          67 -> Passed: Operation = ADD, a = 61396, b = 62497, c = 123893, expected = 123893
# Test          68: Operation = ADD, a = 63840, b = 22377, expected =  86217
# Check          68 -> Passed: Operation = ADD, a = 63840, b = 22377, c =  86217, expected =  86217
# Test          69: Operation = ADD, a = 46598, b = 30708, expected =  77306
# Check          69 -> Passed: Operation = ADD, a = 46598, b = 30708, c =  77306, expected =  77306
# Test          70: Operation = ADD, a = 13950, b = 38090, expected =  52040
# Check          70 -> Passed: Operation = ADD, a = 13950, b = 38090, c =  52040, expected =  52040
# Test          71: Operation = ADD, a = 29224, b =  2051, expected =  31275
# Check          71 -> Passed: Operation = ADD, a = 29224, b =  2051, c =  31275, expected =  31275
# Test          72: Operation = ADD, a = 28079, b = 54252, expected =  82331
# Check          72 -> Passed: Operation = ADD, a = 28079, b = 54252, c =  82331, expected =  82331
# Test          73: Operation = ADD, a = 17278, b = 25670, expected =  42948
# Check          73 -> Passed: Operation = ADD, a = 17278, b = 25670, c =  42948, expected =  42948
# Test          74: Operation = ADD, a = 22856, b = 26309, expected =  49165
# Check          74 -> Passed: Operation = ADD, a = 22856, b = 26309, c =  49165, expected =  49165
# Test          75: Operation = ADD, a = 38910, b = 59044, expected =  97954
# Check          75 -> Passed: Operation = ADD, a = 38910, b = 59044, c =  97954, expected =  97954
# Test          76: Operation = ADD, a = 48501, b = 61453, expected = 109954
# Check          76 -> Passed: Operation = ADD, a = 48501, b = 61453, c = 109954, expected = 109954
# Test          77: Operation = ADD, a = 38518, b = 11389, expected =  49907
# Check          77 -> Passed: Operation = ADD, a = 38518, b = 11389, c =  49907, expected =  49907
# Test          78: Operation = ADD, a = 44319, b = 44537, expected =  88856
# Check          78 -> Passed: Operation = ADD, a = 44319, b = 44537, c =  88856, expected =  88856
# Test          79: Operation = ADD, a = 37497, b = 51745, expected =  89242
# Check          79 -> Passed: Operation = ADD, a = 37497, b = 51745, c =  89242, expected =  89242
# Test          80: Operation = ADD, a = 10349, b = 60125, expected =  70474
# Check          80 -> Passed: Operation = ADD, a = 10349, b = 60125, c =  70474, expected =  70474
# Test          81: Operation = ADD, a =  8911, b = 17393, expected =  26304
# Check          81 -> Passed: Operation = ADD, a =  8911, b = 17393, c =  26304, expected =  26304
# Test          82: Operation = ADD, a = 52837, b = 42394, expected =  95231
# Check          82 -> Passed: Operation = ADD, a = 52837, b = 42394, c =  95231, expected =  95231
# Test          83: Operation = ADD, a = 24432, b = 23464, expected =  47896
# Check          83 -> Passed: Operation = ADD, a = 24432, b = 23464, c =  47896, expected =  47896
# Test          84: Operation = ADD, a = 38774, b =  9198, expected =  47972
# Check          84 -> Passed: Operation = ADD, a = 38774, b =  9198, c =  47972, expected =  47972
# Test          85: Operation = ADD, a = 47540, b = 20760, expected =  68300
# Check          85 -> Passed: Operation = ADD, a = 47540, b = 20760, c =  68300, expected =  68300
# Test          86: Operation = ADD, a = 39505, b = 57980, expected =  97485
# Check          86 -> Passed: Operation = ADD, a = 39505, b = 57980, c =  97485, expected =  97485
# Test          87: Operation = ADD, a = 29517, b =  9409, expected =  38926
# Check          87 -> Passed: Operation = ADD, a = 29517, b =  9409, c =  38926, expected =  38926
# Test          88: Operation = ADD, a = 28343, b =  2630, expected =  30973
# Check          88 -> Passed: Operation = ADD, a = 28343, b =  2630, c =  30973, expected =  30973
# Test          89: Operation = ADD, a = 42736, b = 31015, expected =  73751
# Check          89 -> Passed: Operation = ADD, a = 42736, b = 31015, c =  73751, expected =  73751
# Test          90: Operation = ADD, a = 24947, b = 10044, expected =  34991
# Check          90 -> Passed: Operation = ADD, a = 24947, b = 10044, c =  34991, expected =  34991
# Test          91: Operation = ADD, a = 64662, b = 57032, expected = 121694
# Check          91 -> Passed: Operation = ADD, a = 64662, b = 57032, c = 121694, expected = 121694
# Test          92: Operation = ADD, a = 34626, b = 29990, expected =  64616
# Check          92 -> Passed: Operation = ADD, a = 34626, b = 29990, c =  64616, expected =  64616
# Test          93: Operation = ADD, a = 23097, b = 43891, expected =  66988
# Check          93 -> Passed: Operation = ADD, a = 23097, b = 43891, c =  66988, expected =  66988
# Test          94: Operation = ADD, a = 22447, b =   436, expected =  22883
# Check          94 -> Passed: Operation = ADD, a = 22447, b =   436, c =  22883, expected =  22883
# Test          95: Operation = ADD, a =  8551, b = 24776, expected =  33327
# Check          95 -> Passed: Operation = ADD, a =  8551, b = 24776, c =  33327, expected =  33327
# Test          96: Operation = ADD, a = 53227, b = 13394, expected =  66621
# Check          96 -> Passed: Operation = ADD, a = 53227, b = 13394, c =  66621, expected =  66621
# Test          97: Operation = ADD, a = 55690, b = 38222, expected =  93912
# Check          97 -> Passed: Operation = ADD, a = 55690, b = 38222, c =  93912, expected =  93912
# Test          98: Operation = ADD, a = 55340, b = 32223, expected =  87563
# Check          98 -> Passed: Operation = ADD, a = 55340, b = 32223, c =  87563, expected =  87563
# Test          99: Operation = ADD, a =  6855, b = 19601, expected =  26456
# Check          99 -> Passed: Operation = ADD, a =  6855, b = 19601, c =  26456, expected =  26456
# Test           0: Operation = SUB, a = 38901, b = 35050, expected =   3851
# Check           0 -> Passed: Operation = SUB, a = 38901, b = 35050, c =   3851, expected =   3851
# Test           1: Operation = SUB, a = 13935, b = 29077, expected = 115930
# Check           1 -> Passed: Operation = SUB, a = 13935, b = 29077, c = 115930, expected = 115930
# Test           2: Operation = SUB, a = 50468, b = 42774, expected =   7694
# Check           2 -> Passed: Operation = SUB, a = 50468, b = 42774, c =   7694, expected =   7694
# Test           3: Operation = SUB, a = 30696, b = 44372, expected = 117396
# Check           3 -> Passed: Operation = SUB, a = 30696, b = 44372, c = 117396, expected = 117396
# Test           4: Operation = SUB, a = 37716, b = 16977, expected =  20739
# Check           4 -> Passed: Operation = SUB, a = 37716, b = 16977, c =  20739, expected =  20739
# Test           5: Operation = SUB, a = 15196, b = 43203, expected = 103065
# Check           5 -> Passed: Operation = SUB, a = 15196, b = 43203, c = 103065, expected = 103065
# Test           6: Operation = SUB, a =  8619, b = 29836, expected = 109855
# Check           6 -> Passed: Operation = SUB, a =  8619, b = 29836, c = 109855, expected = 109855
# Test           7: Operation = SUB, a = 33822, b = 41390, expected = 123504
# Check           7 -> Passed: Operation = SUB, a = 33822, b = 41390, c = 123504, expected = 123504
# Test           8: Operation = SUB, a =   757, b =   478, expected =    279
# Check           8 -> Passed: Operation = SUB, a =   757, b =   478, c =    279, expected =    279
# Test           9: Operation = SUB, a =  4609, b = 44480, expected =  91201
# Check           9 -> Passed: Operation = SUB, a =  4609, b = 44480, c =  91201, expected =  91201
# Test          10: Operation = SUB, a =  7040, b = 16584, expected = 121528
# Check          10 -> Passed: Operation = SUB, a =  7040, b = 16584, c = 121528, expected = 121528
# Test          11: Operation = SUB, a = 49645, b = 57514, expected = 123203
# Check          11 -> Passed: Operation = SUB, a = 49645, b = 57514, c = 123203, expected = 123203
# Test          12: Operation = SUB, a =  7973, b = 53593, expected =  85452
# Check          12 -> Passed: Operation = SUB, a =  7973, b = 53593, c =  85452, expected =  85452
# Test          13: Operation = SUB, a = 58228, b = 62646, expected = 126654
# Check          13 -> Passed: Operation = SUB, a = 58228, b = 62646, c = 126654, expected = 126654
# Test          14: Operation = SUB, a = 14622, b =  1378, expected =  13244
# Check          14 -> Passed: Operation = SUB, a = 14622, b =  1378, c =  13244, expected =  13244
# Test          15: Operation = SUB, a = 55720, b = 39503, expected =  16217
# Check          15 -> Passed: Operation = SUB, a = 55720, b = 39503, c =  16217, expected =  16217
# Test          16: Operation = SUB, a = 13231, b =    83, expected =  13148
# Check          16 -> Passed: Operation = SUB, a = 13231, b =    83, c =  13148, expected =  13148
# Test          17: Operation = SUB, a = 14773, b = 46645, expected =  99200
# Check          17 -> Passed: Operation = SUB, a = 14773, b = 46645, c =  99200, expected =  99200
# Test          18: Operation = SUB, a = 40733, b = 22600, expected =  18133
# Check          18 -> Passed: Operation = SUB, a = 40733, b = 22600, c =  18133, expected =  18133
# Test          19: Operation = SUB, a =  5420, b = 22235, expected = 114257
# Check          19 -> Passed: Operation = SUB, a =  5420, b = 22235, c = 114257, expected = 114257
# Test          20: Operation = SUB, a = 59792, b = 59670, expected =    122
# Check          20 -> Passed: Operation = SUB, a = 59792, b = 59670, c =    122, expected =    122
# Test          21: Operation = SUB, a = 46998, b =   932, expected =  46066
# Check          21 -> Passed: Operation = SUB, a = 46998, b =   932, c =  46066, expected =  46066
# Test          22: Operation = SUB, a = 22526, b = 19936, expected =   2590
# Check          22 -> Passed: Operation = SUB, a = 22526, b = 19936, c =   2590, expected =   2590
# Test          23: Operation = SUB, a = 12678, b = 39392, expected = 104358
# Check          23 -> Passed: Operation = SUB, a = 12678, b = 39392, c = 104358, expected = 104358
# Test          24: Operation = SUB, a = 48219, b = 33809, expected =  14410
# Check          24 -> Passed: Operation = SUB, a = 48219, b = 33809, c =  14410, expected =  14410
# Test          25: Operation = SUB, a = 57038, b = 11216, expected =  45822
# Check          25 -> Passed: Operation = SUB, a = 57038, b = 11216, c =  45822, expected =  45822
# Test          26: Operation = SUB, a = 58777, b = 53520, expected =   5257
# Check          26 -> Passed: Operation = SUB, a = 58777, b = 53520, c =   5257, expected =   5257
# Test          27: Operation = SUB, a = 44678, b = 24998, expected =  19680
# Check          27 -> Passed: Operation = SUB, a = 44678, b = 24998, c =  19680, expected =  19680
# Test          28: Operation = SUB, a =  7233, b = 41491, expected =  96814
# Check          28 -> Passed: Operation = SUB, a =  7233, b = 41491, c =  96814, expected =  96814
# Test          29: Operation = SUB, a = 15634, b = 33191, expected = 113515
# Check          29 -> Passed: Operation = SUB, a = 15634, b = 33191, c = 113515, expected = 113515
# Test          30: Operation = SUB, a = 64907, b = 59291, expected =   5616
# Check          30 -> Passed: Operation = SUB, a = 64907, b = 59291, c =   5616, expected =   5616
# Test          31: Operation = SUB, a = 32011, b = 49674, expected = 113409
# Check          31 -> Passed: Operation = SUB, a = 32011, b = 49674, c = 113409, expected = 113409
# Test          32: Operation = SUB, a = 28431, b = 33271, expected = 126232
# Check          32 -> Passed: Operation = SUB, a = 28431, b = 33271, c = 126232, expected = 126232
# Test          33: Operation = SUB, a = 17833, b = 43727, expected = 105178
# Check          33 -> Passed: Operation = SUB, a = 17833, b = 43727, c = 105178, expected = 105178
# Test          34: Operation = SUB, a = 24042, b =  9167, expected =  14875
# Check          34 -> Passed: Operation = SUB, a = 24042, b =  9167, c =  14875, expected =  14875
# Test          35: Operation = SUB, a = 11586, b = 46441, expected =  96217
# Check          35 -> Passed: Operation = SUB, a = 11586, b = 46441, c =  96217, expected =  96217
# Test          36: Operation = SUB, a = 23612, b = 13876, expected =   9736
# Check          36 -> Passed: Operation = SUB, a = 23612, b = 13876, c =   9736, expected =   9736
# Test          37: Operation = SUB, a = 48380, b = 49233, expected = 130219
# Check          37 -> Passed: Operation = SUB, a = 48380, b = 49233, c = 130219, expected = 130219
# Test          38: Operation = SUB, a = 52124, b = 29362, expected =  22762
# Check          38 -> Passed: Operation = SUB, a = 52124, b = 29362, c =  22762, expected =  22762
# Test          39: Operation = SUB, a = 43991, b = 18471, expected =  25520
# Check          39 -> Passed: Operation = SUB, a = 43991, b = 18471, c =  25520, expected =  25520
# Test          40: Operation = SUB, a = 53665, b = 36435, expected =  17230
# Check          40 -> Passed: Operation = SUB, a = 53665, b = 36435, c =  17230, expected =  17230
# Test          41: Operation = SUB, a = 42433, b =  9467, expected =  32966
# Check          41 -> Passed: Operation = SUB, a = 42433, b =  9467, c =  32966, expected =  32966
# Test          42: Operation = SUB, a = 15379, b = 11421, expected =   3958
# Check          42 -> Passed: Operation = SUB, a = 15379, b = 11421, c =   3958, expected =   3958
# Test          43: Operation = SUB, a =  7381, b = 17737, expected = 120716
# Check          43 -> Passed: Operation = SUB, a =  7381, b = 17737, c = 120716, expected = 120716
# Test          44: Operation = SUB, a = 30066, b = 20737, expected =   9329
# Check          44 -> Passed: Operation = SUB, a = 30066, b = 20737, c =   9329, expected =   9329
# Test          45: Operation = SUB, a = 56143, b = 39854, expected =  16289
# Check          45 -> Passed: Operation = SUB, a = 56143, b = 39854, c =  16289, expected =  16289
# Test          46: Operation = SUB, a = 38356, b = 11403, expected =  26953
# Check          46 -> Passed: Operation = SUB, a = 38356, b = 11403, c =  26953, expected =  26953
# Test          47: Operation = SUB, a = 21013, b = 63745, expected =  88340
# Check          47 -> Passed: Operation = SUB, a = 21013, b = 63745, c =  88340, expected =  88340
# Test          48: Operation = SUB, a =  5045, b = 34528, expected = 101589
# Check          48 -> Passed: Operation = SUB, a =  5045, b = 34528, c = 101589, expected = 101589
# Test          49: Operation = SUB, a =  3343, b = 32091, expected = 102324
# Check          49 -> Passed: Operation = SUB, a =  3343, b = 32091, c = 102324, expected = 102324
# Test          50: Operation = SUB, a = 27168, b = 37696, expected = 120544
# Check          50 -> Passed: Operation = SUB, a = 27168, b = 37696, c = 120544, expected = 120544
# Test          51: Operation = SUB, a =  1420, b =   985, expected =    435
# Check          51 -> Passed: Operation = SUB, a =  1420, b =   985, c =    435, expected =    435
# Test          52: Operation = SUB, a =  8947, b = 19351, expected = 120668
# Check          52 -> Passed: Operation = SUB, a =  8947, b = 19351, c = 120668, expected = 120668
# Test          53: Operation = SUB, a = 64397, b = 47750, expected =  16647
# Check          53 -> Passed: Operation = SUB, a = 64397, b = 47750, c =  16647, expected =  16647
# Test          54: Operation = SUB, a = 47004, b = 47700, expected = 130376
# Check          54 -> Passed: Operation = SUB, a = 47004, b = 47700, c = 130376, expected = 130376
# Test          55: Operation = SUB, a = 52045, b = 46893, expected =   5152
# Check          55 -> Passed: Operation = SUB, a = 52045, b = 46893, c =   5152, expected =   5152
# Test          56: Operation = SUB, a = 14124, b = 58616, expected =  86580
# Check          56 -> Passed: Operation = SUB, a = 14124, b = 58616, c =  86580, expected =  86580
# Test          57: Operation = SUB, a = 45392, b = 13451, expected =  31941
# Check          57 -> Passed: Operation = SUB, a = 45392, b = 13451, c =  31941, expected =  31941
# Test          58: Operation = SUB, a =   496, b = 20152, expected = 111416
# Check          58 -> Passed: Operation = SUB, a =   496, b = 20152, c = 111416, expected = 111416
# Test          59: Operation = SUB, a =   929, b = 27324, expected = 104677
# Check          59 -> Passed: Operation = SUB, a =   929, b = 27324, c = 104677, expected = 104677
# Test          60: Operation = SUB, a = 38922, b = 13986, expected =  24936
# Check          60 -> Passed: Operation = SUB, a = 38922, b = 13986, c =  24936, expected =  24936
# Test          61: Operation = SUB, a = 36040, b =  3891, expected =  32149
# Check          61 -> Passed: Operation = SUB, a = 36040, b =  3891, c =  32149, expected =  32149
# Test          62: Operation = SUB, a = 31504, b = 59078, expected = 103498
# Check          62 -> Passed: Operation = SUB, a = 31504, b = 59078, c = 103498, expected = 103498
# Test          63: Operation = SUB, a = 13622, b = 20304, expected = 124390
# Check          63 -> Passed: Operation = SUB, a = 13622, b = 20304, c = 124390, expected = 124390
# Test          64: Operation = SUB, a = 56210, b = 20531, expected =  35679
# Check          64 -> Passed: Operation = SUB, a = 56210, b = 20531, c =  35679, expected =  35679
# Test          65: Operation = SUB, a = 24087, b = 54678, expected = 100481
# Check          65 -> Passed: Operation = SUB, a = 24087, b = 54678, c = 100481, expected = 100481
# Test          66: Operation = SUB, a = 26229, b = 15258, expected =  10971
# Check          66 -> Passed: Operation = SUB, a = 26229, b = 15258, c =  10971, expected =  10971
# Test          67: Operation = SUB, a = 48425, b =   356, expected =  48069
# Check          67 -> Passed: Operation = SUB, a = 48425, b =   356, c =  48069, expected =  48069
# Test          68: Operation = SUB, a = 49116, b =  4632, expected =  44484
# Check          68 -> Passed: Operation = SUB, a = 49116, b =  4632, c =  44484, expected =  44484
# Test          69: Operation = SUB, a = 43064, b = 14699, expected =  28365
# Check          69 -> Passed: Operation = SUB, a = 43064, b = 14699, c =  28365, expected =  28365
# Test          70: Operation = SUB, a = 33732, b =  8809, expected =  24923
# Check          70 -> Passed: Operation = SUB, a = 33732, b =  8809, c =  24923, expected =  24923
# Test          71: Operation = SUB, a = 46153, b = 33163, expected =  12990
# Check          71 -> Passed: Operation = SUB, a = 46153, b = 33163, c =  12990, expected =  12990
# Test          72: Operation = SUB, a = 48098, b = 36321, expected =  11777
# Check          72 -> Passed: Operation = SUB, a = 48098, b = 36321, c =  11777, expected =  11777
# Test          73: Operation = SUB, a = 29538, b = 26600, expected =   2938
# Check          73 -> Passed: Operation = SUB, a = 29538, b = 26600, c =   2938, expected =   2938
# Test          74: Operation = SUB, a = 25300, b =  9071, expected =  16229
# Check          74 -> Passed: Operation = SUB, a = 25300, b =  9071, c =  16229, expected =  16229
# Test          75: Operation = SUB, a = 60088, b = 59931, expected =    157
# Check          75 -> Passed: Operation = SUB, a = 60088, b = 59931, c =    157, expected =    157
# Test          76: Operation = SUB, a = 39123, b =  5659, expected =  33464
# Check          76 -> Passed: Operation = SUB, a = 39123, b =  5659, c =  33464, expected =  33464
# Test          77: Operation = SUB, a =  1860, b = 55352, expected =  77580
# Check          77 -> Passed: Operation = SUB, a =  1860, b = 55352, c =  77580, expected =  77580
# Test          78: Operation = SUB, a = 10642, b = 47655, expected =  94059
# Check          78 -> Passed: Operation = SUB, a = 10642, b = 47655, c =  94059, expected =  94059
# Test          79: Operation = SUB, a = 61130, b = 60343, expected =    787
# Check          79 -> Passed: Operation = SUB, a = 61130, b = 60343, c =    787, expected =    787
# Test          80: Operation = SUB, a = 47260, b = 34476, expected =  12784
# Check          80 -> Passed: Operation = SUB, a = 47260, b = 34476, c =  12784, expected =  12784
# Test          81: Operation = SUB, a = 38117, b = 12090, expected =  26027
# Check          81 -> Passed: Operation = SUB, a = 38117, b = 12090, c =  26027, expected =  26027
# Test          82: Operation = SUB, a = 43676, b = 19665, expected =  24011
# Check          82 -> Passed: Operation = SUB, a = 43676, b = 19665, c =  24011, expected =  24011
# Test          83: Operation = SUB, a = 14181, b = 33563, expected = 111690
# Check          83 -> Passed: Operation = SUB, a = 14181, b = 33563, c = 111690, expected = 111690
# Test          84: Operation = SUB, a = 10823, b = 21526, expected = 120369
# Check          84 -> Passed: Operation = SUB, a = 10823, b = 21526, c = 120369, expected = 120369
# Test          85: Operation = SUB, a = 41067, b = 26686, expected =  14381
# Check          85 -> Passed: Operation = SUB, a = 41067, b = 26686, c =  14381, expected =  14381
# Test          86: Operation = SUB, a =  1464, b = 47619, expected =  84917
# Check          86 -> Passed: Operation = SUB, a =  1464, b = 47619, c =  84917, expected =  84917
# Test          87: Operation = SUB, a = 52645, b =  5048, expected =  47597
# Check          87 -> Passed: Operation = SUB, a = 52645, b =  5048, c =  47597, expected =  47597
# Test          88: Operation = SUB, a = 34684, b =  7964, expected =  26720
# Check          88 -> Passed: Operation = SUB, a = 34684, b =  7964, c =  26720, expected =  26720
# Test          89: Operation = SUB, a = 20075, b =  5610, expected =  14465
# Check          89 -> Passed: Operation = SUB, a = 20075, b =  5610, c =  14465, expected =  14465
# Test          90: Operation = SUB, a =  7200, b =  9157, expected = 129115
# Check          90 -> Passed: Operation = SUB, a =  7200, b =  9157, c = 129115, expected = 129115
