Waqar/tasks/fifo/fifo.vcd
$date
	Sat Jul 13 13:08:53 2024
$end
$version
	ModelSim Version 2020.1
$end
$timescale
	1ps
$end

$scope module fifo_tb $end
$var parameter 32 ! FIFO_WIDTH $end
$var parameter 32 " DATA_WIDTH $end
$var reg 1 # clk $end
$var reg 1 $ rst_n $end
$var reg 8 % d_i [7:0] $end
$var reg 1 & wr_en $end
$var reg 1 ' rd_en $end
$var reg 8 ( d_o [7:0] $end
$var reg 1 ) full $end
$var reg 1 * empty $end

$scope module dut $end
$var parameter 32 + FIFO_WIDTH $end
$var parameter 32 , DATA_WIDTH $end
$var wire 1 - clk $end
$var wire 1 . rst_n $end
$var wire 1 / d_i [7] $end
$var wire 1 0 d_i [6] $end
$var wire 1 1 d_i [5] $end
$var wire 1 2 d_i [4] $end
$var wire 1 3 d_i [3] $end
$var wire 1 4 d_i [2] $end
$var wire 1 5 d_i [1] $end
$var wire 1 6 d_i [0] $end
$var wire 1 7 wr_en $end
$var wire 1 8 rd_en $end
$var reg 8 9 d_o [7:0] $end
$var reg 1 : full $end
$var reg 1 ; empty $end
$var reg 3 < current_state [2:0] $end
$var reg 3 = next_state [2:0] $end
$var reg 7 > fifo_count [6:0] $end
$var reg 7 ? wr_addr [6:0] $end
$var reg 7 @ rd_addr [6:0] $end
$upscope $end
$upscope $end
$enddefinitions $end
#0
$dumpvars
0#
0$
b0 %
0&
0'
bx (
x)
x*
bx 9
x:
x;
bx <
bx =
bx >
bx ?
bx @
b10000000 !
b1000 "
b10000000 +
b1000 ,
0-
0.
06
05
04
03
02
01
00
0/
07
08
$end
#5
1#
1-
b0 <
b0 ?
b0 @
b0 >
0:
1;
1*
0)
b0 =
#10
1$
b10100101 %
1&
1'
0#
16
14
11
1/
1.
17
18
0-
b10 =
#15
1#
1-
b10 <
b0 =
#20
0#
0-
#25
1#
1-
b0 <
b1 ?
b1 >
0;
0*
b10 =
#30
0#
0-
#35
1#
1-
b10 <
b0 =
#40
0#
0-
#45
1#
1-
b0 <
b10 ?
b10 >
b10 =
#50
0#
0-
#55
1#
1-
b10 <
b0 =
#60
0#
0-
#65
1#
1-
b0 <
b11 ?
b11 >
b10 =
#70
0#
0-
#75
1#
1-
b10 <
b0 =
#80
0#
0-
#85
1#
1-
b0 <
b100 ?
b100 >
b10 =
#90
0#
0-
#95
1#
1-
b10 <
b0 =
#100
0#
0-
#105
1#
1-
b0 <
b101 ?
b101 >
b10 =
#110
0#
0-
#115
1#
1-
b10 <
b0 =
#120
0#
0-
#125
1#
1-
b0 <
b110 ?
b110 >
b10 =
#130
0#
0-
#135
1#
1-
b10 <
b0 =
#140
0#
0-
#145
1#
1-
b0 <
b111 ?
b111 >
b10 =
#150
0#
0-
#155
1#
1-
b10 <
b0 =
#160
0#
0-
#165
1#
1-
b0 <
b1000 ?
b1000 >
b10 =
#170
0#
0-
#175
1#
1-
b10 <
b0 =
#180
0#
0-
#185
1#
1-
b0 <
b1001 ?
b1001 >
b10 =
#190
0#
0-
#195
1#
1-
b10 <
b0 =
#200
0#
0-
#205
1#
1-
b0 <
b1010 ?
b1010 >
b10 =
#210
0#
0-
#215
1#
1-
b10 <
b0 =
#220
0#
0-
#225
1#
1-
b0 <
b1011 ?
b1011 >
b10 =
#230
0#
0-
#235
1#
1-
b10 <
b0 =
#240
0#
0-
#245
1#
1-
b0 <
b1100 ?
b1100 >
b10 =
#250
0#
0-
#255
1#
1-
b10 <
b0 =
#260
0#
0-
#265
1#
1-
b0 <
b1101 ?
b1101 >
b10 =
#270
0#
0-
#275
1#
1-
b10 <
b0 =
#280
0#
0-
#285
1#
1-
b0 <
b1110 ?
b1110 >
b10 =
#290
0#
0-
#295
1#
1-
b10 <
b0 =
#300
0#
0-
#305
1#
1-
b0 <
b1111 ?
b1111 >
b10 =
#310
0#
0-
#315
1#
1-
b10 <
b0 =
#320
0#
0-
#325
1#
1-
b0 <
b10000 ?
b10000 >
b10 =
#330
0#
0-
#335
1#
1-
b10 <
b0 =
#340
0#
0-
#345
1#
1-
b0 <
b10001 ?
b10001 >
b10 =
#350
0#
0-
#355
1#
1-
b10 <
b0 =
#360
0#
0-
#365
1#
1-
b0 <
b10010 ?
b10010 >
b10 =
#370
0#
0-
#375
1#
1-
b10 <
b0 =
#380
0#
0-
#385
1#
1-
b0 <
b10011 ?
b10011 >
b10 =
#390
0#
0-
#395
1#
1-
b10 <
b0 =
#400
0#
0-
#405
1#
1-
b0 <
b10100 ?
b10100 >
b10 =
#410
0#
0-
#415
1#
1-
b10 <
b0 =
#420
0#
0-
#425
1#
1-
b0 <
b10101 ?
b10101 >
b10 =
#430
0#
0-
#435
1#
1-
b10 <
b0 =
#440
0#
0-
#445
1#
1-
b0 <
b10110 ?
b10110 >
b10 =
#450
0#
0-
#455
1#
1-
b10 <
b0 =
#460
0#
0-
#465
1#
1-
b0 <
b10111 ?
b10111 >
b10 =
#470
0#
0-
#475
1#
1-
b10 <
b0 =
#480
0#
0-
#485
1#
1-
b0 <
b11000 ?
b11000 >
b10 =
#490
0#
0-
#495
1#
1-
b10 <
b0 =
#500
0#
0-
#505
1#
1-
b0 <
b11001 ?
b11001 >
b10 =
#510
0#
0-
#515
1#
1-
b10 <
b0 =
#520
0#
0-
#525
1#
1-
b0 <
b11010 ?
b11010 >
b10 =
#530
0#
0-
#535
1#
1-
b10 <
b0 =
#540
0#
0-
#545
1#
1-
b0 <
b11011 ?
b11011 >
b10 =
#550
0#
0-
#555
1#
1-
b10 <
b0 =
#560
0#
0-
#565
1#
1-
b0 <
b11100 ?
b11100 >
b10 =
#570
0#
0-
#575
1#
1-
b10 <
b0 =
#580
0#
0-
#585
1#
1-
b0 <
b11101 ?
b11101 >
b10 =
#590
0#
0-
#595
1#
1-
b10 <
b0 =
#600
0#
0-
#605
1#
1-
b0 <
b11110 ?
b11110 >
b10 =
#610
0#
0-
#615
1#
1-
b10 <
b0 =
#620
0#
0-
#625
1#
1-
b0 <
b11111 ?
b11111 >
b10 =
#630
0#
0-
#635
1#
1-
b10 <
b0 =
#640
0#
0-
#645
1#
1-
b0 <
b100000 ?
b100000 >
b10 =
#650
0#
0-
#655
1#
1-
b10 <
b0 =
#660
0#
0-
#665
1#
1-
b0 <
b100001 ?
b100001 >
b10 =
#670
0#
0-
#675
1#
1-
b10 <
b0 =
#680
0#
0-
#685
1#
1-
b0 <
b100010 ?
b100010 >
b10 =
#690
0#
0-
#695
1#
1-
b10 <
b0 =
#700
0#
0-
#705
1#
1-
b0 <
b100011 ?
b100011 >
b10 =
#710
0#
0-
#715
1#
1-
b10 <
b0 =
#720
0#
0-
#725
1#
1-
b0 <
b100100 ?
b100100 >
b10 =
#730
0#
0-
#735
1#
1-
b10 <
b0 =
#740
0#
0-
#745
1#
1-
b0 <
b100101 ?
b100101 >
b10 =
#750
0#
0-
#755
1#
1-
b10 <
b0 =
#760
0#
0-
#765
1#
1-
b0 <
b100110 ?
b100110 >
b10 =
#770
0#
0-
#775
1#
1-
b10 <
b0 =
#780
0#
0-
#785
1#
1-
b0 <
b100111 ?
b100111 >
b10 =
#790
0#
0-
#795
1#
1-
b10 <
b0 =
#800
0#
0-
#805
1#
1-
b0 <
b101000 ?
b101000 >
b10 =
#810
0#
0-
#815
1#
1-
b10 <
b0 =
#820
0#
0-
#825
1#
1-
b0 <
b101001 ?
b101001 >
b10 =
#830
0#
0-
#835
1#
1-
b10 <
b0 =
#840
0#
0-
#845
1#
1-
b0 <
b101010 ?
b101010 >
b10 =
#850
0#
0-
#855
1#
1-
b10 <
b0 =
#860
0#
0-
#865
1#
1-
b0 <
b101011 ?
b101011 >
b10 =
#870
0#
0-
#875
1#
1-
b10 <
b0 =
#880
0#
0-
#885
1#
1-
b0 <
b101100 ?
b101100 >
b10 =
#890
0#
0-
#895
1#
1-
b10 <
b0 =
#900
0#
0-
#905
1#
1-
b0 <
b101101 ?
b101101 >
b10 =
#910
0#
0-
#915
1#
1-
b10 <
b0 =
#920
0#
0-
#925
1#
1-
b0 <
b101110 ?
b101110 >
b10 =
#930
0#
0-
#935
1#
1-
b10 <
b0 =
#940
0#
0-
#945
1#
1-
b0 <
b101111 ?
b101111 >
b10 =
#950
0#
0-
#955
1#
1-
b10 <
b0 =
#960
0#
0-
#965
1#
1-
b0 <
b110000 ?
b110000 >
b10 =
#970
0#
0-
#975
1#
1-
b10 <
b0 =
#980
0#
0-
#985
1#
1-
b0 <
b110001 ?
b110001 >
b10 =
#990
0#
0-
#995
1#
1-
b10 <
b0 =
#1000
0#
0-
#1005
1#
1-
b0 <
b110010 ?
b110010 >
b10 =
#1010
0#
0-
#1015
1#
1-
b10 <
b0 =
#1020
0#
0-
#1025
1#
1-
b0 <
b110011 ?
b110011 >
b10 =
#1030
0#
0-
#1035
1#
1-
b10 <
b0 =
#1040
0#
0-
#1045
1#
1-
b0 <
b110100 ?
b110100 >
b10 =
#1050
0#
0-
#1055
1#
1-
b10 <
b0 =
#1060
0#
0-
#1065
1#
1-
b0 <
b110101 ?
b110101 >
b10 =
#1070
0#
0-
#1075
1#
1-
b10 <
b0 =
#1080
0#
0-
#1085
1#
1-
b0 <
b110110 ?
b110110 >
b10 =
#1090
0#
0-
#1095
1#
1-
b10 <
b0 =
#1100
0#
0-
#1105
1#
1-
b0 <
b110111 ?
b110111 >
b10 =
#1110
0#
0-
#1115
1#
1-
b10 <
b0 =
#1120
0#
0-
#1125
1#
1-
b0 <
b111000 ?
b111000 >
b10 =
#1130
0#
0-
#1135
1#
1-
b10 <
b0 =
#1140
0#
0-
#1145
1#
1-
b0 <
b111001 ?
b111001 >
b10 =
#1150
0#
0-
#1155
1#
1-
b10 <
b0 =
#1160
0#
0-
#1165
1#
1-
b0 <
b111010 ?
b111010 >
b10 =
#1170
0#
0-
#1175
1#
1-
b10 <
b0 =
#1180
0#
0-
#1185
1#
1-
b0 <
b111011 ?
b111011 >
b10 =
#1190
0#
0-
#1195
1#
1-
b10 <
b0 =
#1200
0#
0-
#1205
1#
1-
b0 <
b111100 ?
b111100 >
b10 =
#1210
0#
0-
#1215
1#
1-
b10 <
b0 =
#1220
0#
0-
#1225
1#
1-
b0 <
b111101 ?
b111101 >
b10 =
#1230
0#
0-
#1235
1#
1-
b10 <
b0 =
#1240
0#
0-
#1245
1#
1-
b0 <
b111110 ?
b111110 >
b10 =
#1250
0#
0-
#1255
1#
1-
b10 <
b0 =
#1260
0#
0-
#1265
1#
1-
b0 <
b111111 ?
b111111 >
b10 =
#1270
0#
0-
#1275
1#
1-
b10 <
b0 =
#1280
0#
0-
#1285
1#
1-
b0 <
b1000000 ?
b1000000 >
b10 =
#1290
0#
0-
#1295
1#
1-
b10 <
b0 =
#1300
0#
0-
#1305
1#
1-
b0 <
b1000001 ?
b1000001 >
b10 =
#1310
0#
0-
#1315
1#
1-
b10 <
b0 =
#1320
0#
0-
#1325
1#
1-
b0 <
b1000010 ?
b1000010 >
b10 =
#1330
0#
0-
#1335
1#
1-
b10 <
b0 =
#1340
0#
0-
#1345
1#
1-
b0 <
b1000011 ?
b1000011 >
b10 =
#1350
0#
0-
#1355
1#
1-
b10 <
b0 =
#1360
0#
0-
#1365
1#
1-
b0 <
b1000100 ?
b1000100 >
b10 =
#1370
0#
0-
#1375
1#
1-
b10 <
b0 =
#1380
0#
0-
#1385
1#
1-
b0 <
b1000101 ?
b1000101 >
b10 =
#1390
0#
0-
#1395
1#
1-
b10 <
b0 =
#1400
0#
0-
#1405
1#
1-
b0 <
b1000110 ?
b1000110 >
b10 =
#1410
0#
0-
#1415
1#
1-
b10 <
b0 =
#1420
0#
0-
#1425
1#
1-
b0 <
b1000111 ?
b1000111 >
b10 =
#1430
0#
0-
#1435
1#
1-
b10 <
b0 =
#1440
0#
0-
#1445
1#
1-
b0 <
b1001000 ?
b1001000 >
b10 =
#1450
0#
0-
#1455
1#
1-
b10 <
b0 =
#1460
0#
0-
#1465
1#
1-
b0 <
b1001001 ?
b1001001 >
b10 =
#1470
0#
0-
#1475
1#
1-
b10 <
b0 =
#1480
0#
0-
#1485
1#
1-
b0 <
b1001010 ?
b1001010 >
b10 =
#1490
0#
0-
#1495
1#
1-
b10 <
b0 =
#1500
0#
0-
#1505
1#
1-
b0 <
b1001011 ?
b1001011 >
b10 =
#1510
0#
0-
#1515
1#
1-
b10 <
b0 =
#1520
0#
0-
#1525
1#
1-
b0 <
b1001100 ?
b1001100 >
b10 =
#1530
0#
0-
#1535
1#
1-
b10 <
b0 =
#1540
0#
0-
#1545
1#
1-
b0 <
b1001101 ?
b1001101 >
b10 =
#1550
0#
0-
#1555
1#
1-
b10 <
b0 =
#1560
0#
0-
#1565
1#
1-
b0 <
b1001110 ?
b1001110 >
b10 =
#1570
0#
0-
#1575
1#
1-
b10 <
b0 =
#1580
0#
0-
#1585
1#
1-
b0 <
b1001111 ?
b1001111 >
b10 =
#1590
0#
0-
#1595
1#
1-
b10 <
b0 =
#1600
0#
0-
#1605
1#
1-
b0 <
b1010000 ?
b1010000 >
b10 =
#1610
0#
0-
#1615
1#
1-
b10 <
b0 =
#1620
0#
0-
#1625
1#
1-
b0 <
b1010001 ?
b1010001 >
b10 =
#1630
0#
0-
#1635
1#
1-
b10 <
b0 =
#1640
0#
0-
#1645
1#
1-
b0 <
b1010010 ?
b1010010 >
b10 =
#1650
0#
0-
#1655
1#
1-
b10 <
b0 =
#1660
0#
0-
#1665
1#
1-
b0 <
b1010011 ?
b1010011 >
b10 =
#1670
0#
0-
#1675
1#
1-
b10 <
b0 =
#1680
0#
0-
#1685
1#
1-
b0 <
b1010100 ?
b1010100 >
b10 =
#1690
0#
0-
#1695
1#
1-
b10 <
b0 =
#1700
0#
0-
#1705
1#
1-
b0 <
b1010101 ?
b1010101 >
b10 =
#1710
0#
0-
#1715
1#
1-
b10 <
b0 =
#1720
0#
0-
#1725
1#
1-
b0 <
b1010110 ?
b1010110 >
b10 =
#1730
0#
0-
#1735
1#
1-
b10 <
b0 =
#1740
0#
0-
#1745
1#
1-
b0 <
b1010111 ?
b1010111 >
b10 =
#1750
0#
0-
#1755
1#
1-
b10 <
b0 =
#1760
0#
0-
#1765
1#
1-
b0 <
b1011000 ?
b1011000 >
b10 =
#1770
0#
0-
#1775
1#
1-
b10 <
b0 =
#1780
0#
0-
#1785
1#
1-
b0 <
b1011001 ?
b1011001 >
b10 =
#1790
0#
0-
#1795
1#
1-
b10 <
b0 =
#1800
0#
0-
#1805
1#
1-
b0 <
b1011010 ?
b1011010 >
b10 =
#1810
0#
0-
#1815
1#
1-
b10 <
b0 =
#1820
0#
0-
#1825
1#
1-
b0 <
b1011011 ?
b1011011 >
b10 =
#1830
0#
0-
#1835
1#
1-
b10 <
b0 =
#1840
0#
0-
#1845
1#
1-
b0 <
b1011100 ?
b1011100 >
b10 =
#1850
0#
0-
#1855
1#
1-
b10 <
b0 =
#1860
0#
0-
#1865
1#
1-
b0 <
b1011101 ?
b1011101 >
b10 =
#1870
0#
0-
#1875
1#
1-
b10 <
b0 =
#1880
0#
0-
#1885
1#
1-
b0 <
b1011110 ?
b1011110 >
b10 =
#1890
0#
0-
#1895
1#
1-
b10 <
b0 =
#1900
0#
0-
#1905
1#
1-
b0 <
b1011111 ?
b1011111 >
b10 =
#1910
0#
0-
#1915
1#
1-
b10 <
b0 =
#1920
0#
0-
#1925
1#
1-
b0 <
b1100000 ?
b1100000 >
b10 =
#1930
0#
0-
#1935
1#
1-
b10 <
b0 =
#1940
0#
0-
#1945
1#
1-
b0 <
b1100001 ?
b1100001 >
b10 =
#1950
0#
0-
#1955
1#
1-
b10 <
b0 =
#1960
0#
0-
#1965
1#
1-
b0 <
b1100010 ?
b1100010 >
b10 =
#1970
0#
0-
#1975
1#
1-
b10 <
b0 =
#1980
0#
0-
#1985
1#
1-
b0 <
b1100011 ?
b1100011 >
b10 =
#1990
0#
0-
#1995
1#
1-
b10 <
b0 =
#2000
0#
0-
#2005
1#
1-
b0 <
b1100100 ?
b1100100 >
b10 =
#2010
0#
0-
#2015
1#
1-
b10 <
b0 =
#2020
0#
0-
#2025
1#
1-
b0 <
b1100101 ?
b1100101 >
b10 =
#2030
0#
0-
#2035
1#
1-
b10 <
b0 =
#2040
0#
0-
#2045
1#
1-
b0 <
b1100110 ?
b1100110 >
b10 =
#2050
0#
0-
#2055
1#
1-
b10 <
b0 =
#2060
0#
0-
#2065
1#
1-
b0 <
b1100111 ?
b1100111 >
b10 =
#2070
0#
0-
#2075
1#
1-
b10 <
b0 =
#2080
0#
0-
#2085
1#
1-
b0 <
b1101000 ?
b1101000 >
b10 =
#2090
0#
0-
#2095
1#
1-
b10 <
b0 =
#2100
0#
0-
#2105
1#
1-
b0 <
b1101001 ?
b1101001 >
b10 =
#2110
0#
0-
#2115
1#
1-
b10 <
b0 =
#2120
0#
0-
#2125
1#
1-
b0 <
b1101010 ?
b1101010 >
b10 =
#2130
0#
0-
#2135
1#
1-
b10 <
b0 =
#2140
0#
0-
#2145
1#
1-
b0 <
b1101011 ?
b1101011 >
b10 =
#2150
0#
0-
#2155
1#
1-
b10 <
b0 =
#2160
0#
0-
#2165
1#
1-
b0 <
b1101100 ?
b1101100 >
b10 =
#2170
0#
0-
#2175
1#
1-
b10 <
b0 =
#2180
0#
0-
#2185
1#
1-
b0 <
b1101101 ?
b1101101 >
b10 =
#2190
0#
0-
#2195
1#
1-
b10 <
b0 =
#2200
0#
0-
#2205
1#
1-
b0 <
b1101110 ?
b1101110 >
b10 =
#2210
0#
0-
#2215
1#
1-
b10 <
b0 =
#2220
0#
0-
#2225
1#
1-
b0 <
b1101111 ?
b1101111 >
b10 =
#2230
0#
0-
#2235
1#
1-
b10 <
b0 =
#2240
0#
0-
#2245
1#
1-
b0 <
b1110000 ?
b1110000 >
b10 =
#2250
0#
0-
#2255
1#
1-
b10 <
b0 =
#2260
0#
0-
#2265
1#
1-
b0 <
b1110001 ?
b1110001 >
b10 =
#2270
0#
0-
#2275
1#
1-
b10 <
b0 =
#2280
0#
0-
#2285
1#
1-
b0 <
b1110010 ?
b1110010 >
b10 =
#2290
0#
0-
#2295
1#
1-
b10 <
b0 =
#2300
0#
0-
#2305
1#
1-
b0 <
b1110011 ?
b1110011 >
b10 =
#2310
0#
0-
#2315
1#
1-
b10 <
b0 =
#2320
0#
0-
#2325
1#
1-
b0 <
b1110100 ?
b1110100 >
b10 =
#2330
0#
0-
#2335
1#
1-
b10 <
b0 =
#2340
0#
0-
#2345
1#
1-
b0 <
b1110101 ?
b1110101 >
b10 =
#2350
0#
0-
#2355
1#
1-
b10 <
b0 =
#2360
0#
0-
#2365
1#
1-
b0 <
b1110110 ?
b1110110 >
b10 =
#2370
0#
0-
#2375
1#
1-
b10 <
b0 =
#2380
0#
0-
#2385
1#
1-
b0 <
b1110111 ?
b1110111 >
b10 =
#2390
0#
0-
#2395
1#
1-
b10 <
b0 =
#2400
0#
0-
#2405
1#
1-
b0 <
b1111000 ?
b1111000 >
b10 =
#2410
0#
0-
#2415
1#
1-
b10 <
b0 =
#2420
0#
0-
#2425
1#
1-
b0 <
b1111001 ?
b1111001 >
b10 =
#2430
0#
0-
#2435
1#
1-
b10 <
b0 =
#2440
0#
0-
#2445
1#
1-
b0 <
b1111010 ?
b1111010 >
b10 =
#2450
0#
0-
#2455
1#
1-
b10 <
b0 =
#2460
0#
0-
#2465
1#
1-
b0 <
b1111011 ?
b1111011 >
b10 =
#2470
0#
0-
#2475
1#
1-
b10 <
b0 =
#2480
0#
0-
#2485
1#
1-
b0 <
b1111100 ?
b1111100 >
b10 =
#2490
0#
0-
#2495
1#
1-
b10 <
b0 =
#2500
0#
0-
#2505
1#
1-
b0 <
b1111101 ?
b1111101 >
b10 =
#2510
0#
0-
#2515
1#
1-
b10 <
b0 =
#2520
0#
0-
#2525
1#
1-
b0 <
b1111110 ?
b1111110 >
b10 =
#2530
0#
0-
#2535
1#
1-
b10 <
b0 =
#2540
0#
0-
#2545
1#
1-
b0 <
b1111111 ?
b1111111 >
1:
1)
b1 =
#2550
0#
0-
#2555
1#
1-
b1 <
b0 =
#2560
0#
0-
#2565
1#
1-
b0 <
b10100101 9
b1 @
b1111110 >
0:
b10100101 (
0)
b10 =
#2570
0#
0-
#2575
1#
1-
b10 <
b0 =
#2580
0#
0-
#2585
1#
1-
b0 <
b0 ?
b1111111 >
1:
1)
b1 =
#2590
0#
0-
#2595
1#
1-
b1 <
b0 =
#2600
0#
0-
#2605
1#
1-
b0 <
b10 @
b1111110 >
0:
0)
b10 =
#2610
0#
0-
#2615
1#
1-
b10 <
b0 =
#2620
0#
0-
#2625
1#
1-
b0 <
b1 ?
b1111111 >
1:
1)
b1 =
#2630
0#
0-
#2635
1#
1-
b1 <
b0 =
#2640
0#
0-
#2645
1#
1-
b0 <
b11 @
b1111110 >
0:
0)
b10 =
#2650
0#
0-
#2655
1#
1-
b10 <
b0 =
#2660
0#
0-
#2665
1#
1-
b0 <
b10 ?
b1111111 >
1:
1)
b1 =
#2670
0#
0-
#2675
1#
1-
b1 <
b0 =
#2680
0#
0-
#2685
1#
1-
b0 <
b100 @
b1111110 >
0:
0)
b10 =
#2690
0#
0-
#2695
1#
1-
b10 <
b0 =
#2700
0#
0-
#2705
1#
1-
b0 <
b11 ?
b1111111 >
1:
1)
b1 =
#2710
0#
0-
#2715
1#
1-
b1 <
b0 =
#2720
0#
0-
#2725
1#
1-
b0 <
b101 @
b1111110 >
0:
0)
b10 =
#2730
0#
0-
#2735
1#
1-
b10 <
b0 =
#2740
0#
0-
#2745
1#
1-
b0 <
b100 ?
b1111111 >
1:
1)
b1 =
#2750
0#
0-
#2755
1#
1-
b1 <
b0 =
#2760
0#
0-
#2765
1#
1-
b0 <
b110 @
b1111110 >
0:
0)
b10 =
#2770
0#
0-
#2775
1#
1-
b10 <
b0 =
#2780
0#
0-
#2785
1#
1-
b0 <
b101 ?
b1111111 >
1:
1)
b1 =
#2790
0#
0-
#2795
1#
1-
b1 <
b0 =
#2800
0#
0-
#2805
1#
1-
b0 <
b111 @
b1111110 >
0:
0)
b10 =
#2810
0#
0-
#2815
1#
1-
b10 <
b0 =
#2820
0#
0-
#2825
1#
1-
b0 <
b110 ?
b1111111 >
1:
1)
b1 =
#2830
0#
0-
#2835
1#
1-
b1 <
b0 =
#2840
0#
0-
#2845
1#
1-
b0 <
b1000 @
b1111110 >
0:
0)
b10 =
#2850
0#
0-
#2855
1#
1-
b10 <
b0 =
#2860
0#
0-
#2865
1#
1-
b0 <
b111 ?
b1111111 >
1:
1)
b1 =
#2870
0#
0-
#2875
1#
1-
b1 <
b0 =
#2880
0#
0-
#2885
1#
1-
b0 <
b1001 @
b1111110 >
0:
0)
b10 =
#2890
0#
0-
#2895
1#
1-
b10 <
b0 =
#2900
0#
0-
#2905
1#
1-
b0 <
b1000 ?
b1111111 >
1:
1)
b1 =
#2910
0#
0-
#2915
1#
1-
b1 <
b0 =
#2920
0#
0-
#2925
1#
1-
b0 <
b1010 @
b1111110 >
0:
0)
b10 =
#2930
0#
0-
#2935
1#
1-
b10 <
b0 =
#2940
0#
0-
#2945
1#
1-
b0 <
b1001 ?
b1111111 >
1:
1)
b1 =
#2950
0#
0-
#2955
1#
1-
b1 <
b0 =
#2960
0#
0-
#2965
1#
1-
b0 <
b1011 @
b1111110 >
0:
0)
b10 =
#2970
0#
0-
#2975
1#
1-
b10 <
b0 =
#2980
0#
0-
#2985
1#
1-
b0 <
b1010 ?
b1111111 >
1:
1)
b1 =
#2990
0#
0-
#2995
1#
1-
b1 <
b0 =
#3000
0#
0-
#3005
1#
1-
b0 <
b1100 @
b1111110 >
0:
0)
b10 =
#3010
0#
0-
#3015
1#
1-
b10 <
b0 =
#3020
0#
0-
#3025
1#
1-
b0 <
b1011 ?
b1111111 >
1:
1)
b1 =
#3030
0#
0-
#3035
1#
1-
b1 <
b0 =
#3040
0#
0-
#3045
1#
1-
b0 <
b1101 @
b1111110 >
0:
0)
b10 =
#3050
0#
0-
#3055
1#
1-
b10 <
b0 =
#3060
0#
0-
#3065
1#
1-
b0 <
b1100 ?
b1111111 >
1:
1)
b1 =
#3070
0#
0-
#3075
1#
1-
b1 <
b0 =
#3080
0#
0-
#3085
1#
1-
b0 <
b1110 @
b1111110 >
0:
0)
b10 =
#3090
0#
0-
#3095
1#
1-
b10 <
b0 =
#3100
0#
0-
#3105
1#
1-
b0 <
b1101 ?
b1111111 >
1:
1)
b1 =
#3110
0#
0-
#3115
1#
1-
b1 <
b0 =
#3120
0#
0-
#3125
1#
1-
b0 <
b1111 @
b1111110 >
0:
0)
b10 =
#3130
0#
0-
#3135
1#
1-
b10 <
b0 =
#3140
0#
0-
#3145
1#
1-
b0 <
b1110 ?
b1111111 >
1:
1)
b1 =
#3150
0#
0-
#3155
1#
1-
b1 <
b0 =
#3160
0#
0-
#3165
1#
1-
b0 <
b10000 @
b1111110 >
0:
0)
b10 =
#3170
0#
0-
#3175
1#
1-
b10 <
b0 =
#3180
0#
0-
#3185
1#
1-
b0 <
b1111 ?
b1111111 >
1:
1)
b1 =
#3190
0#
0-
#3195
1#
1-
b1 <
b0 =
#3200
0#
0-
#3205
1#
1-
b0 <
b10001 @
b1111110 >
0:
0)
b10 =
#3210
0#
0-
#3215
1#
1-
b10 <
b0 =
#3220
0#
0-
#3225
1#
1-
b0 <
b10000 ?
b1111111 >
1:
1)
b1 =
#3230
0#
0-
#3235
1#
1-
b1 <
b0 =
#3240
0#
0-
#3245
1#
1-
b0 <
b10010 @
b1111110 >
0:
0)
b10 =
#3250
0#
0-
#3255
1#
1-
b10 <
b0 =
#3260
0#
0-
#3265
1#
1-
b0 <
b10001 ?
b1111111 >
1:
1)
b1 =
#3270
0#
0-
#3275
1#
1-
b1 <
b0 =
#3280
0#
0-
#3285
1#
1-
b0 <
b10011 @
b1111110 >
0:
0)
b10 =
#3290
0#
0-
#3295
1#
1-
b10 <
b0 =
#3300
0#
0-
#3305
1#
1-
b0 <
b10010 ?
b1111111 >
1:
1)
b1 =
#3310
0#
0-
#3315
1#
1-
b1 <
b0 =
#3320
0#
0-
#3325
1#
1-
b0 <
b10100 @
b1111110 >
0:
0)
b10 =
#3330
0#
0-
#3335
1#
1-
b10 <
b0 =
#3340
0#
0-
#3345
1#
1-
b0 <
b10011 ?
b1111111 >
1:
1)
b1 =
#3350
0#
0-
#3355
1#
1-
b1 <
b0 =
#3360
0#
0-
#3365
1#
1-
b0 <
b10101 @
b1111110 >
0:
0)
b10 =
#3370
0#
0-
#3375
1#
1-
b10 <
b0 =
#3380
0#
0-
#3385
1#
1-
b0 <
b10100 ?
b1111111 >
1:
1)
b1 =
#3390
0#
0-
#3395
1#
1-
b1 <
b0 =
#3400
0#
0-
#3405
1#
1-
b0 <
b10110 @
b1111110 >
0:
0)
b10 =
#3410
0#
0-
#3415
1#
1-
b10 <
b0 =
#3420
0#
0-
#3425
1#
1-
b0 <
b10101 ?
b1111111 >
1:
1)
b1 =
#3430
0#
0-
#3435
1#
1-
b1 <
b0 =
#3440
0#
0-
#3445
1#
1-
b0 <
b10111 @
b1111110 >
0:
0)
b10 =
#3450
0#
0-
#3455
1#
1-
b10 <
b0 =
#3460
0#
0-
#3465
1#
1-
b0 <
b10110 ?
b1111111 >
1:
1)
b1 =
#3470
0#
0-
#3475
1#
1-
b1 <
b0 =
#3480
0#
0-
#3485
1#
1-
b0 <
b11000 @
b1111110 >
0:
0)
b10 =
#3490
0#
0-
#3495
1#
1-
b10 <
b0 =
#3500
0#
0-
#3505
1#
1-
b0 <
b10111 ?
b1111111 >
1:
1)
b1 =
#3510
0#
0-
#3515
1#
1-
b1 <
b0 =
#3520
0#
0-
#3525
1#
1-
b0 <
b11001 @
b1111110 >
0:
0)
b10 =
#3530
0#
0-
#3535
1#
1-
b10 <
b0 =
#3540
0#
0-
#3545
1#
1-
b0 <
b11000 ?
b1111111 >
1:
1)
b1 =
#3550
0#
0-
#3555
1#
1-
b1 <
b0 =
#3560
0#
0-
#3565
1#
1-
b0 <
b11010 @
b1111110 >
0:
0)
b10 =
#3570
0#
0-
#3575
1#
1-
b10 <
b0 =
#3580
0#
0-
#3585
1#
1-
b0 <
b11001 ?
b1111111 >
1:
1)
b1 =
#3590
0#
0-
#3595
1#
1-
b1 <
b0 =
#3600
0#
0-
#3605
1#
1-
b0 <
b11011 @
b1111110 >
0:
0)
b10 =
#3610
0#
0-
#3615
1#
1-
b10 <
b0 =
#3620
0#
0-
#3625
1#
1-
b0 <
b11010 ?
b1111111 >
1:
1)
b1 =
#3630
0#
0-
#3635
1#
1-
b1 <
b0 =
#3640
0#
0-
#3645
1#
1-
b0 <
b11100 @
b1111110 >
0:
0)
b10 =
#3650
0#
0-
#3655
1#
1-
b10 <
b0 =
#3660
0#
0-
#3665
1#
1-
b0 <
b11011 ?
b1111111 >
1:
1)
b1 =
#3670
0#
0-
#3675
1#
1-
b1 <
b0 =
#3680
0#
0-
#3685
1#
1-
b0 <
b11101 @
b1111110 >
0:
0)
b10 =
#3690
0#
0-
#3695
1#
1-
b10 <
b0 =
#3700
0#
0-
#3705
1#
1-
b0 <
b11100 ?
b1111111 >
1:
1)
b1 =
#3710
0#
0-
#3715
1#
1-
b1 <
b0 =
#3720
0#
0-
#3725
1#
1-
b0 <
b11110 @
b1111110 >
0:
0)
b10 =
#3730
0#
0-
#3735
1#
1-
b10 <
b0 =
#3740
0#
0-
#3745
1#
1-
b0 <
b11101 ?
b1111111 >
1:
1)
b1 =
#3750
0#
0-
#3755
1#
1-
b1 <
b0 =
#3760
0#
0-
#3765
1#
1-
b0 <
b11111 @
b1111110 >
0:
0)
b10 =
#3770
0#
0-
#3775
1#
1-
b10 <
b0 =
#3780
0#
0-
